\relax 
\providecommand\hyper@newdestlabel[2]{}
\providecommand{\transparent@use}[1]{}
\providecommand\HyperFirstAtBeginDocument{\AtBeginDocument}
\HyperFirstAtBeginDocument{\ifx\hyper@anchor\@undefined
\global\let\oldcontentsline\contentsline
\gdef\contentsline#1#2#3#4{\oldcontentsline{#1}{#2}{#3}}
\global\let\oldnewlabel\newlabel
\gdef\newlabel#1#2{\newlabelxx{#1}#2}
\gdef\newlabelxx#1#2#3#4#5#6{\oldnewlabel{#1}{{#2}{#3}}}
\AtEndDocument{\ifx\hyper@anchor\@undefined
\let\contentsline\oldcontentsline
\let\newlabel\oldnewlabel
\fi}
\fi}
\global\let\hyper@last\relax 
\gdef\HyperFirstAtBeginDocument#1{#1}
\providecommand\HyField@AuxAddToFields[1]{}
\providecommand\HyField@AuxAddToCoFields[2]{}
\providecommand\babel@aux[2]{}
\@nameuse{bbl@beforestart}
\catcode `^\active 
\catcode `"\active 
\catcode `'\active 
\catcode `-\active 
\babel@aux{slovak}{}
\@writefile{toc}{\contentsline {section}{\numberline {1}Příklad 1}{2}{section.1}\protected@file@percent }
\newlabel{sec:priklad-1}{{1}{2}{Příklad 1}{section.1}{}}
\@writefile{toc}{\contentsline {subsection}{\numberline {1.1}Zjednodušovanie}{2}{subsection.1.1}\protected@file@percent }
\@writefile{lof}{\contentsline {figure}{\numberline {1}{\ignorespaces Obvod s premenenou delta formáciou na hviezdicovú.}}{2}{figure.1}\protected@file@percent }
\newlabel{fig:figure1}{{1}{2}{Obvod s premenenou delta formáciou na hviezdicovú}{figure.1}{}}
\@writefile{toc}{\contentsline {subsection}{\numberline {1.2}Backtracking}{4}{subsection.1.2}\protected@file@percent }
\@writefile{lof}{\contentsline {figure}{\numberline {2}{\ignorespaces Zjednodušený obvod.}}{4}{figure.2}\protected@file@percent }
\newlabel{fig:figure2}{{2}{4}{Zjednodušený obvod}{figure.2}{}}
\@writefile{toc}{\contentsline {section}{\numberline {2}Příklad 2}{5}{section.2}\protected@file@percent }
\@writefile{toc}{\contentsline {subsection}{\numberline {2.1}Zjednodušenie}{5}{subsection.2.1}\protected@file@percent }
\@writefile{lof}{\contentsline {figure}{\numberline {3}{\ignorespaces Modifikovaný obvod bez záťaže a zdrojov.}}{5}{figure.3}\protected@file@percent }
\newlabel{fig:figure3}{{3}{5}{Modifikovaný obvod bez záťaže a zdrojov}{figure.3}{}}
\@writefile{lof}{\contentsline {figure}{\numberline {4}{\ignorespaces Modifikovaný obvod bez záťaže.}}{6}{figure.4}\protected@file@percent }
\newlabel{fig:figure4}{{4}{6}{Modifikovaný obvod bez záťaže}{figure.4}{}}
\@writefile{lof}{\contentsline {figure}{\numberline {5}{\ignorespaces Théveninov obvod.}}{6}{figure.5}\protected@file@percent }
\newlabel{fig:figure5}{{5}{6}{Théveninov obvod}{figure.5}{}}
\@writefile{toc}{\contentsline {section}{\numberline {3}Příklad 3}{7}{section.3}\protected@file@percent }
\@writefile{lof}{\contentsline {figure}{\numberline {6}{\ignorespaces Obvod s vyznačenými prúdmi.}}{7}{figure.6}\protected@file@percent }
\newlabel{fig:figure6}{{6}{7}{Obvod s vyznačenými prúdmi}{figure.6}{}}
\@writefile{toc}{\contentsline {subsection}{\numberline {3.1}Dosadenie}{9}{subsection.3.1}\protected@file@percent }
\@writefile{toc}{\contentsline {section}{\numberline {4}Příklad 4}{10}{section.4}\protected@file@percent }
\@writefile{lof}{\contentsline {figure}{\numberline {7}{\ignorespaces Obvod s vyznačenými slučkovými prúdmi.}}{10}{figure.7}\protected@file@percent }
\newlabel{fig:figure7}{{7}{10}{Obvod s vyznačenými slučkovými prúdmi}{figure.7}{}}
\@writefile{toc}{\contentsline {section}{\numberline {5}Příklad 5}{12}{section.5}\protected@file@percent }
\@writefile{toc}{\contentsline {section}{\numberline {6}Shrnutí výsledků}{15}{section.6}\protected@file@percent }
\gdef\svg@ink@ver@settings{{\m@ne }{inkscape}{\m@ne }}
\gdef \@abspage@last{15}
