\babel@toc {slovak}{}\relax 
\contentsline {section}{\numberline {1}Příklad 1}{2}{section.1}%
\contentsline {subsection}{\numberline {1.1}Zjednodušovanie}{2}{subsection.1.1}%
\contentsline {subsection}{\numberline {1.2}Backtracking}{4}{subsection.1.2}%
\contentsline {section}{\numberline {2}Příklad 2}{5}{section.2}%
\contentsline {subsection}{\numberline {2.1}Zjednodušenie}{5}{subsection.2.1}%
\contentsline {section}{\numberline {3}Příklad 3}{7}{section.3}%
\contentsline {subsection}{\numberline {3.1}Dosadenie}{9}{subsection.3.1}%
\contentsline {section}{\numberline {4}Příklad 4}{10}{section.4}%
\contentsline {section}{\numberline {5}Příklad 5}{12}{section.5}%
\contentsline {section}{\numberline {6}Shrnutí výsledků}{15}{section.6}%
